<?xml version="1.0" encoding="UTF-8"?>
<svg width="18px" height="18px" viewBox="0 0 18 18" version="1.1" xmlns="http://www.w3.org/2000/svg" xmlns:xlink="http://www.w3.org/1999/xlink">
    <title>error_icon</title>
    <g id="Settings" stroke="none" stroke-width="1" fill="none" fill-rule="evenodd">
        <g id="error_icon">
            <circle id="Oval" fill="#F7DDE1" cx="9" cy="9" r="9"></circle>
            <path d="M8.90427341,10.7385658 C8.70914164,10.7325226 8.52076317,10.8103311 8.38677341,10.9523158 C8.11349977,11.2647404 8.11349977,11.7311412 8.38677341,12.0435658 C8.52076317,12.1855506 8.70914164,12.2633591 8.90427341,12.2573158 C9.10026352,12.2620609 9.2892911,12.184546 9.42552341,12.0435658 C9.70555835,11.7337124 9.70555835,11.2621692 9.42552341,10.9523158 C9.2892911,10.8113357 9.10026352,10.7338208 8.90427341,10.7385658 L8.90427341,10.7385658 Z" id="Path" fill="#C70D2C" fill-rule="nonzero"></path>
            <rect id="Rectangle" fill="#C70D2C" x="8.25823892" y="5.72727273" width="1.24137931" height="4.34482759"></rect>
        </g>
    </g>
</svg>