<?xml version="1.0" encoding="UTF-8"?>
<svg width="100px" height="100px" viewBox="0 0 100 100" version="1.1" xmlns="http://www.w3.org/2000/svg" xmlns:xlink="http://www.w3.org/1999/xlink">
    <!-- Generator: Sketch 58 (84663) - https://sketch.com -->
    <title>octshape</title>
    <desc>Created with Sketch.</desc>
    <g id="Share-Numbers-+-block-element" stroke="none" stroke-width="1" fill="none" fill-rule="evenodd">
        <polygon id="octshape" fill="#000000" points="29.2897443 100 0 70.7102557 0 29.2897443 29.2897443 0 70.7113819 0 100 29.2897443 100 70.7102557 70.7113819 100"></polygon>
    </g>
</svg>